{
    "version": "1",
    "metadata": {
        "apiVersion": "1",
        "serviceAbbreviation": "Api",
        "serviceFullName": "Fvgestao\\Api\\Idp",
        "protocol": "rest-json"
    },
    "operations": {

        "ObterToken": {
            "name": "obterToken",
            "http": {
                "method": "POST",
                "requestUri": "/oauth/token"
            },
            "input": {"shape": "TokenRequest"},
            "output": {"shape": "TokenResponse"}
        },

        "CriarUsuario": {
            "name": "criarUsuario",
            "http": {
                "method": "POST",
                "requestUri": "/usuario"
            },
            "input": {"shape": "CriarUsuarioRequest"},
            "output": {"shape": "CriarUsuarioResponse"}
        },

        "AlterarUsuario": {
            "name": "alterarUsuario",
            "http": {
                "method": "PUT",
                "requestUri": "/usuario/{id}"
            },
            "input": {"shape": "AlterarUsuarioRequest"},
            "output": {"shape": "AlterarUsuarioResponse"}
        },

        "VisualizarUsuario": {
            "name": "visualizarUsuario",
            "http": {
                "method": "GET",
                "requestUri": "/usuario/{id}"
            },
            "input": {"shape": "VisualizarUsuarioRequest"},
            "output": {"shape": "VisualizarUsuarioResponse"}
        },

        "BuscarUsuario": {
            "name": "buscarUsuario",
            "http": {
                "method": "POST",
                "requestUri": "/usuario/buscar"
            },
            "input": {"shape": "BuscarUsuarioRequest"},
            "output": {"shape": "BuscarUsuarioResponse"}
        }
    },

    "shapes": {

        "TokenRequest": {
            "type": "structure",
            "required": ["client_id", "client_secret", "grant_type"],
            "members": {
                "client_id": {"type": "string"},
                "client_secret": {"type": "string"},
                "grant_type": {"type": "string"}
            }
        },

        "TokenResponse": {
            "type": "structure",
            "members": {
                "token_type": {"type": "string"},
                "expire_in": {"type": "integer"},
                "access_token": {"type": "string"}
            }
        },

        "CriarUsuarioRequest": {
            "type": "structure",
            "required": ["email", "senha"],
            "members": {
                "email": {"type": "string"},
                "senha": {"type": "string"},
                "dados": {"shape": "UsuarioDados"}
            }
        },

        "CriarUsuarioResponse": {
            "type": "structure",
            "members" : {
                "data" : {
                    "shape" : "Usuario"
                }
            }
        },

        "AlterarUsuarioRequest": {
            "type": "structure",
            "members": {
                "id": {
                    "shape": "String",
                    "location": "uri",
                    "locationName": "id"
                },
                "email": {"type": "string"},
                "dados": {"shape": "UsuarioDados"}
            }
        },

        "AlterarUsuarioResponse": {
            "type": "structure",
            "members": {
                "data": {
                    "shape": "Usuario"
                }
            }
        },

        "VisualizarUsuarioRequest": {
            "type": "structure",
            "members": {
                "id": {
                    "shape": "String",
                    "location": "uri",
                    "locationName": "id"
                }
            }
        },

        "VisualizarUsuarioResponse": {
            "type": "structure",
            "members" : {
                "data" : {
                    "shape" : "Usuario"
                }
            }
        },

        "BuscarUsuarioRequest": {
            "type": "structure",
            "members": {
                "email": {"type": "string"},
                "nome": {"type": "string"}
            }
        },

        "BuscarUsuarioResponse": {
            "type": "structure",
            "members": {
                "data": {
                    "type": "list",
                    "member": {
                        "shape": "Usuario"
                    }
                }
            }
        },

        "Usuario": {
            "type": "structure",
            "members": {
                "id": {"type": "string"},
                "email": {"type": "string"},
                "data_cadastro": {"type": "string"},
                "status": {"type": "string"},
                "dados": {"shape": "UsuarioDados"},
                "avatar": {"shape": "Imagem"}
            }
        },

        "UsuarioDados": {
            "type": "structure",
            "members": {
                "nome": {"type": "string"},
                "nascimento": {"type": "string"},
                "cpf": {"type": "string"},
                "optimus": {"shape": "UsuarioDadosOptimus"},
                "tokenAtivarConta": {"type": "string"},
                "tokenRecuperarSenha": {"type": "string"},
                "colaboradorLogado": {"type": "string"}
            }
        },

        "UsuarioDadosOptimus": {
            "type": "structure",
            "members": {
                "exibirAjuda": {"shape": "UsuarioDadosOptimusAjuda"}
            }
        },

        "UsuarioDadosOptimusAjuda": {
            "type": "structure",
            "members": {
                "dashboard": {"type": "integer"},
                "mapaDoNegocio": {"type": "integer"},
                "inserirAvaliacao": {"type": "integer"},
                "perguntaAvaliacao": {"type": "integer"},
                "visualizarAvaliacao": {"type": "integer"},
                "a3": {"type": "integer"},
                "a3Visualizar": {"type": "integer"},
                "planoDeAcao": {"type": "integer"},
                "matrizDePriorizacao": {"type": "integer"}
            }
        },

        "Imagem": {
            "type": "structure",
            "members": {
                "id": {"type": "string"},
                "arquivo": {"type": "string"},
                "tamanho": {"type": "integer"},
                "largura": {"type": "integer"},
                "altura": {"type": "integer"},
                "uri": {"type": "string"}
            }
        },

        "String": {
            "type": "string"
        },

        "Integer": {
            "type": "integer"
        }

    }
}
